Optimising Arbitrage with FFR Market Participation • rbattery
…
The maximum/minimum charge can simply be joined to the data as follows. For timestamps that do not coincide with df_contract_req$start, the min_charge and max_charge will be set to NA i.e. no data. This turns out to be convenient since NA is interpreted as the default min or max charge by rbattery::optimise_arbitrage i.e. 0 and the battery capacity respectively. Hence, after the join, the data.frame is in form required for optimisation.

Note that the join works if the window start time is coincident with a settlement period, however, further manipulation would be required if this were not the case i.e. it would be required to ‘roll forward’ the min/max charge data to the next settlement period start time.

# Set max/min charge.
df_optim_20160701 <- df_optim_20160701 %>%
    dplyr::full_join(
        df_contract_req %>% dplyr::select(-end),
        by = c('timestamp' = 'start'))

# Show example.
from_time <- lubridate::ymd_hm(glue::glue('{analysis_day} 06:00'))
df_optim_20160701 %>%
    dplyr::filter(timestamp >= from_time)
#> # A tibble: 36 x 5
#>    timestamp           price_epex exclude max_charge min_charge
#>    <dttm>                   <dbl>   <int>      <dbl>      <dbl>
#>  1 2016-07-01 06:00:00       31.0       0         NA         NA
#>  2 2016-07-01 06:30:00       33.5       0         NA         NA
#>  3 2016-07-01 07:00:00       33.5       1          9          4
#>  4 2016-07-01 07:30:00       35.2       1         NA         NA
#>  5 2016-07-01 08:00:00       52.2       1         NA         NA
#>  6 2016-07-01 08:30:00       53.3       1         NA         NA
#>  7 2016-07-01 09:00:00       53.7       1         NA         NA
#>  8 2016-07-01 09:30:00       45.7       1         NA         NA
#>  9 2016-07-01 10:00:00       45.6       1         NA         NA
#> 10 2016-07-01 10:30:00       47.7       0         NA         NA
#> # … with 26 more rows
…
